ISA*00*          *00*          *ZZ*TGFPROD940     *ZZ*STEELSR        *170706*1815*U*00401*000064189*0*P*>~
GS*SW*TGFPROD940*STEELSR*20170706*1815*64189*X*004010~
ST*945*000062748~
W06*N*DP0037684-201934*20170706*04402586612864534*8608591*4B6W8BXJ~
N1*ST*AMAZON.COM.DEDC LLC~
N3*309 CEDAR LANE~
N4*FLORENCE*NJ*8518~
PER*AJ*AMAZON.COM.DEDC LLC*TE*206-266-2107*EA*~
N9*06*DP0037684~
N9*P8*0861314515~
N9*LO*2747817913~
G62*11*20170706*D*1815~
W27*M*EXLA*ESTES EXPRESS LINES~
LX*1~
MAN*GM*00006612000002348538~
W12*CC*50*50*0*EA*813810010424*IN*63004~
G69*QCK~
LX*2~
MAN*GM*00006612000002348545~
W12*CC*50*50*0*EA*813810010424*IN*63004~
G69*QCK~
LX*3~
MAN*GM*00006612000002348552~
W12*CC*50*50*0*EA*813810010424*IN*63004~
G69*QCK~
LX*4~
MAN*GM*00006612000002348569~
W12*CC*50*50*0*EA*813810010424*IN*63004~
G69*QCK~
LX*5~
MAN*GM*00006612000002348576~
W12*CC*50*50*0*EA*813810010424*IN*63004~
G69*QCK~
LX*6~
MAN*GM*00006612000002348583~
W12*CC*50*50*0*EA*813810010424*IN*63004~
G69*QCK~
LX*7~
MAN*GM*00006612000002348590~
W12*CC*50*50*0*EA*813810010424*IN*63004~
G69*QCK~
LX*8~
MAN*GM*00006612000002348606~
W12*CC*50*50*0*EA*813810010424*IN*63004~
G69*QCK~
LX*9~
MAN*GM*00006612000002348613~
W12*CC*50*50*0*EA*813810010424*IN*63004~
G69*QCK~
W03*9*171*LB*13.41*CF~
SE*49*000062748~
GE*1*64189~
IEA*1*000064189~
